1 Николаев Николай Николаевич 00:00:00 02:50:00 ЦСК
2 Невский Александр Александрович 00:00:00 02:19:49 Спартак
3 Козловский Данила Валерьевич 00:00:00 02:59:49 Чернобыль
4 Александровский Александр Александрович 00:00:00 17:23:13 Спартак
5 Алексеевский Алексей Алексеевич 00:00:00 01:58:12 ВДНХ
6 Павловский Павел Павлович 00:00:00 03:21:01 Спартак
7 Славиков Сергей Анатольевич 00:00:00 02:01:59 Анигилятор
8 Крыжков Виталий Геннадьевич 00:00:00 04:12:12 ЦСК
9 Павликов Дмитрий Васильевич 00:00:00 31:120:12 ВДНХ
